Data Wrangling in R
…
`slice()` and `filter()` 

---

`select` is used to select certain variables in the data frame. 

.left-panel[

```r
select(arthritis, age, cdai)
```

```
## # A tibble: 530 × 2
##      age  cdai
##    <dbl> <dbl>
##  1    85  NA  
##  2    86  23  
##  3    83  14.5
##  4    83  NA  
##  5    85  NA  
##  6    79  NA  
##  7    90  NA  
##  8    90  40  
##  9    87   6  
## 10    82  NA  
## # … with 520 more rows
```
]

--

.right-panel[

```r
arthritis %>% 
  select(age, cdai)
```

```
## # A tibble: 530 × 2
##      age  cdai
##    <dbl> <dbl>
##  1    85  NA  
##  2    86  23  
##  3    83  14.5
##  4    83  NA  
##  5    85  NA  
##  6    79  NA  
##  7    90  NA  
##  8    90  40  
##  9    87   6  
## 10    82  NA  
## # … with 520 more rows
```

]

---

`select` can also be used to drop certain variables if used with a negative sign.

```r
select(arthritis, -id, -sex)
```

```
## # A tibble: 530 × 12
##      age age_gp  yrs_from_dx  cdai cdai_yn das_28 das28_yn steroids_gt_5 dmar_ds
##    <dbl> <fct>         <dbl> <dbl> <fct>    <dbl>    <dbl>         <dbl>   <dbl>
##  1    85 elderly          27  NA   no          NA        1             0       1
##  2    86 elderly          27  23   yes         NA        1             1       1
##  3    83 elderly          10  14.5 yes         NA        1             1       1
##  4    83 elderly           9  NA   no          NA        1             1       1
##  5    85 elderly          NA  NA   no          NA        1             0       0
##  6    79 elderly          NA  NA   no          NA        1             0       0
##  7    90 elderly          51  NA   no          NA        1             0       1
##  8    90 elderly          11  40   yes         NA        1             1       0
##  9    87 elderly          36   6   yes         NA        1             0       0
## 10    82 elderly           4  NA   no          NA        1             0       1
## # … with 520 more rows, and 3 more variables: biologics <dbl>, s_dmards <dbl>,
## #   osteop_screen <dbl>
```
…
## Selection helpers

`starts_with()`  
`ends_with()`  
`contains()`  

---

```r
select(arthritis, starts_with("cdai"))
```

```
## # A tibble: 530 × 2
##     cdai cdai_yn
##    <dbl> <fct>  
##  1  NA   no     
##  2  23   yes    
##  3  14.5 yes    
##  4  NA   no     
##  5  NA   no     
##  6  NA   no     
##  7  NA   no     
##  8  40   yes    
##  9   6   yes    
## 10  NA   no     
## # … with 520 more rows
```

---

```r
select(arthritis, contains("28"))
```

```
## # A tibble: 530 × 2
##    das_28 das28_yn
##     <dbl>    <dbl>
##  1     NA        1
##  2     NA        1
##  3     NA        1
##  4     NA        1
##  5     NA        1
##  6     NA        1
##  7     NA        1
##  8     NA        1
##  9     NA        1
## 10     NA        1
## # … with 520 more rows
```
…
Here is when piping helps. We can pipe into other functions such as `nrow()`

---

Q. How many patients are diagnosed with moderate disease activity (i.e. CDAI > 10 and ≤ 22)? 

--

```r
arthritis %>% 
  filter(cdai > 10 & cdai <= 22)
```

```
## # A tibble: 67 × 14
##       id   age age_gp  sex    yrs_from_dx  cdai cdai_yn das_28 das28_yn
##    <dbl> <dbl> <fct>   <fct>        <dbl> <dbl> <fct>    <dbl>    <dbl>
##  1     3    83 elderly female          10  14.5 yes         NA        1
##  2    27    77 elderly female           3  20   yes         NA        1
##  3    69    90 elderly female          40  14   yes         NA        1
##  4   206    58 control female           4  18   yes         NA        1
##  5   207    61 control female          35  16   yes         NA        1
##  6   208    42 control female           8  20   yes         NA        1
##  7   209    54 control female          10  17   yes         NA        1
##  8   210    70 control female           5  13   yes         NA        1
##  9   211    62 control female           9  11   yes         NA        1
## 10   212    63 control female           1  16   yes         NA        1
## # … with 57 more rows, and 5 more variables: steroids_gt_5 <dbl>,
## #   dmar_ds <dbl>, biologics <dbl>, s_dmards <dbl>, osteop_screen <dbl>
```
…
---

Moving forward we are only going to use, `age`, `age_gp` `sex`, `yrs_from_dx` and `cdai`. Let's clean our data accordingly and move on with the smaller `arthritis` data that we need.

---

```r
arthritis %>% 
  select(age, age_gp, 
         sex, yrs_from_dx,
         cdai)
```

```
## # A tibble: 530 × 5
##      age age_gp  sex    yrs_from_dx  cdai
##    <dbl> <fct>   <fct>        <dbl> <dbl>
##  1    85 elderly female          27  NA  
##  2    86 elderly female          27  23  
##  3    83 elderly female          10  14.5
##  4    83 elderly female           9  NA  
##  5    85 elderly female          NA  NA  
##  6    79 elderly male            NA  NA  
##  7    90 elderly female          51  NA  
##  8    90 elderly female          11  40  
##  9    87 elderly female          36   6  
## 10    82 elderly female           4  NA  
## # … with 520 more rows
```
…
.font50[Question: ]

> Do "elderly" group have higher or lower CDAI overall when compared with the "control" group?

---

The function group_by() from dplyr groups the rows by the unique values in the column specified to it. Note that there is no perceptible change to the dataset after running group_by(), until another dplyr verb such as mutate(), summarise(), or arrange() is applied on the “grouped” data frame.

```r
arthritis
```

```
## # A tibble: 530 × 6
##      age age_gp  sex    yrs_from_dx  cdai days_from_dx
##    <dbl> <fct>   <fct>        <dbl> <dbl>        <dbl>
##  1    85 elderly female          27  NA           9720
##  2    86 elderly female          27  23           9720
##  3    83 elderly female          10  14.5         3600
##  4    83 elderly female           9  NA           3240
##  5    85 elderly female          NA  NA             NA
##  6    79 elderly male            NA  NA             NA
##  7    90 elderly female          51  NA          18360
##  8    90 elderly female          11  40           3960
##  9    87 elderly female          36   6          12960
## 10    82 elderly female           4  NA           1440
## # … with 520 more rows
```

---

Once we group the data, we won't see much difference other than `Groups:   age_gp [2]` statement, everything else will be similar. 

```r
arthritis %>% 
  group_by(age_gp) 
```

```
## # A tibble: 530 × 6
## # Groups:   age_gp [2]
##      age age_gp  sex    yrs_from_dx  cdai days_from_dx
##    <dbl> <fct>   <fct>        <dbl> <dbl>        <dbl>
##  1    85 elderly female          27  NA           9720
##  2    86 elderly female          27  23           9720
##  3    83 elderly female          10  14.5         3600
##  4    83 elderly female           9  NA           3240
##  5    85 elderly female          NA  NA             NA
##  6    79 elderly male            NA  NA             NA
##  7    90 elderly female          51  NA          18360
##  8    90 elderly female          11  40           3960
##  9    87 elderly female          36   6          12960
## 10    82 elderly female           4  NA           1440
## # … with 520 more rows
```
…
