Data Wrangling in R
…
`slice()` and `filter()` 

---

`select` is used to select certain variables in the data frame. 

.left-panel[

```r
select(AD, age, cdrglob)
```

```
## # A tibble: 2,700 × 2
##      age cdrglob
##    <dbl>   <dbl>
##  1    74     0.5
##  2    56     0  
##  3    77     0  
##  4    74     0  
##  5    75     0.5
##  6    72     0  
##  7    64     0  
##  8    78     0.5
##  9    73     0  
## 10    81     1  
## # ℹ 2,690 more rows
```
…
--

.right-panel[

```r
AD %>% 
  select(age, cdrglob)
```

```
## # A tibble: 2,700 × 2
##      age cdrglob
##    <dbl>   <dbl>
##  1    74     0.5
##  2    56     0  
##  3    77     0  
##  4    74     0  
##  5    75     0.5
##  6    72     0  
##  7    64     0  
##  8    78     0.5
##  9    73     0  
## 10    81     1  
## # ℹ 2,690 more rows
```

]

---

`select` can also be used to drop certain variables if used with a negative sign.

```r
select(AD, -id, -female)
```

```
## # A tibble: 2,700 × 55
##    diagnosis   age  educ height weight bpsys bpdias hrate cdrglob naccgds delsev
##    <fct>     <dbl> <dbl>  <dbl>  <dbl> <dbl>  <dbl> <dbl>   <dbl>   <dbl>  <dbl>
##  1 Normal c…    74    12   65      233   148    100    72     0.5       5      0
##  2 Normal c…    56    16   62      110   110     75    60     0         1      0
##  3 Normal c…    77    18   65      137   144     60    64     0         0      0
##  4 Normal c…    74    20   62      112   120     60    72     0         0      0
##  5 Mild cog…    75    14   62      127   145     61    58     0.5       4      0
##  6 Normal c…    72    16   61.8    141   107     65    83     0         1      0
##  7 Normal c…    64    16   60      124   112     70    76     0         2      0
##  8 Dementia…    78    17   69      152   134     74    70     0.5       0      0
##  9 Normal c…    73    18   65      131   122     60    60     0         0      0
## 10 Dementia…    81    13   71      197   120     70    76     1         5      0
## # ℹ 2,690 more rows
## # ℹ 44 more variables: hallsev <dbl>, agitsev <dbl>, depdsev <dbl>,
## #   anxsev <dbl>, elatsev <dbl>, apasev <dbl>, disnsev <dbl>, irrsev <dbl>,
## #   motsev <dbl>, nitesev <dbl>, appsev <dbl>, bills <dbl>, taxes <dbl>,
## #   shopping <dbl>, games <dbl>, stove <dbl>, mealprep <dbl>, events <dbl>,
## #   payattn <dbl>, remdates <dbl>, travel <dbl>, naccmmse <dbl>,
## #   memunits <dbl>, digif <dbl>, animals <dbl>, traila <dbl>, trailb <dbl>, …
```

---

## Selection helpers

`starts_with()`  
`ends_with()`  
`contains()`  

```r
select(AD, starts_with("cdrglob"))
```

```
## # A tibble: 2,700 × 1
##    cdrglob
##      <dbl>
##  1     0.5
##  2     0  
##  3     0  
##  4     0  
##  5     0.5
##  6     0  
##  7     0  
##  8     0.5
##  9     0  
## 10     1  
## # ℹ 2,690 more rows
```

---

```r
select(AD, contains("ght"))
```

```
## # A tibble: 2,700 × 2
##    height weight
##     <dbl>  <dbl>
##  1   65      233
##  2   62      110
##  3   65      137
##  4   62      112
##  5   62      127
##  6   61.8    141
##  7   60      124
##  8   69      152
##  9   65      131
## 10   71      197
## # ℹ 2,690 more rows
```
…
Here is when piping helps. We can pipe into other functions such as `nrow()`

---

Q. How many patients are diagnosed with questionable or mild dementia impairment (i.e. CDRGLOB > 0 and ≤ 1)? 

--

```r
AD %>% 
  filter(cdrglob > 0 & cdrglob <= 1)
```

```
## # A tibble: 1,211 × 57
##    id      diagnosis   age  educ female height weight bpsys bpdias hrate cdrglob
##    <chr>   <fct>     <dbl> <dbl> <fct>   <dbl>  <dbl> <dbl>  <dbl> <dbl>   <dbl>
##  1 S060833 Normal c…    74    12 male     65      233   148    100    72     0.5
##  2 S011143 Mild cog…    75    14 male     62      127   145     61    58     0.5
##  3 S122622 Dementia…    78    17 male     69      152   134     74    70     0.5
##  4 S297075 Dementia…    81    13 male     71      197   120     70    76     1  
##  5 S194401 Mild cog…    75    16 female   68      110   145     60    66     0.5
##  6 S227329 Dementia…    75    12 male     66      180   128     84    64     0.5
##  7 S982276 Dementia…    56    16 male     67.5    166   130     80    70     0.5
##  8 S275920 Dementia…    81     9 female   64      184   150     80    52     0.5
##  9 S121348 Mild cog…    71    16 female   62.2    131   146     86    58     0.5
## 10 S763522 Dementia…    81    14 male     73.5    212   124     60    64     1  
## # ℹ 1,201 more rows
## # ℹ 46 more variables: naccgds <dbl>, delsev <dbl>, hallsev <dbl>,
## #   agitsev <dbl>, depdsev <dbl>, anxsev <dbl>, elatsev <dbl>, apasev <dbl>,
## #   disnsev <dbl>, irrsev <dbl>, motsev <dbl>, nitesev <dbl>, appsev <dbl>,
## #   bills <dbl>, taxes <dbl>, shopping <dbl>, games <dbl>, stove <dbl>,
## #   mealprep <dbl>, events <dbl>, payattn <dbl>, remdates <dbl>, travel <dbl>,
## #   naccmmse <dbl>, memunits <dbl>, digif <dbl>, animals <dbl>, traila <dbl>, …
```
…
---

Moving forward we are only going to use, `age`, `diagnosis` `female`, `bpsys` and `cdrglob`. Let's clean our data accordingly and move on with the smaller `AD` data that we need.

--

```r
AD %>% 
  select(age, diagnosis, 
         female, bpsys,
         cdrglob)
```

```
## # A tibble: 2,700 × 5
##      age diagnosis                 female bpsys cdrglob
##    <dbl> <fct>                     <fct>  <dbl>   <dbl>
##  1    74 Normal cognition          male     148     0.5
##  2    56 Normal cognition          female   110     0  
##  3    77 Normal cognition          female   144     0  
##  4    74 Normal cognition          female   120     0  
##  5    75 Mild cognitive impairment male     145     0.5
##  6    72 Normal cognition          female   107     0  
##  7    64 Normal cognition          female   112     0  
##  8    78 Dementia due to AD        male     134     0.5
##  9    73 Normal cognition          female   122     0  
## 10    81 Dementia due to AD        male     120     1  
## # ℹ 2,690 more rows
```
…
.font50[Question: ]

> Do females have higher or lower CDRGLOB overall when compared with the males?

---

The function group_by() from dplyr groups the rows by the unique values in the column specified to it. Note that there is no perceptible change to the dataset after running group_by(), until another dplyr verb such as mutate(), summarise(), or arrange() is applied on the “grouped” data frame.

```r
AD
```

```
## # A tibble: 2,700 × 6
##      age diagnosis                 female bpsys cdrglob age_days
##    <dbl> <fct>                     <fct>  <dbl>   <dbl>    <dbl>
##  1    74 Normal cognition          male     148     0.5    27010
##  2    56 Normal cognition          female   110     0      20440
##  3    77 Normal cognition          female   144     0      28105
##  4    74 Normal cognition          female   120     0      27010
##  5    75 Mild cognitive impairment male     145     0.5    27375
##  6    72 Normal cognition          female   107     0      26280
##  7    64 Normal cognition          female   112     0      23360
##  8    78 Dementia due to AD        male     134     0.5    28470
##  9    73 Normal cognition          female   122     0      26645
## 10    81 Dementia due to AD        male     120     1      29565
## # ℹ 2,690 more rows
```

---

Once we group the data, we won't see much difference other than `Groups:   female [2]` statement, everything else will be similar. 

```r
AD %>% 
  group_by(female) 
```

```
## # A tibble: 2,700 × 6
## # Groups:   female [2]
##      age diagnosis                 female bpsys cdrglob age_days
##    <dbl> <fct>                     <fct>  <dbl>   <dbl>    <dbl>
##  1    74 Normal cognition          male     148     0.5    27010
##  2    56 Normal cognition          female   110     0      20440
##  3    77 Normal cognition          female   144     0      28105
##  4    74 Normal cognition          female   120     0      27010
##  5    75 Mild cognitive impairment male     145     0.5    27375
##  6    72 Normal cognition          female   107     0      26280
##  7    64 Normal cognition          female   112     0      23360
##  8    78 Dementia due to AD        male     134     0.5    28470
##  9    73 Normal cognition          female   122     0      26645
## 10    81 Dementia due to AD        male     120     1      29565
## # ℹ 2,690 more rows
```
…
